-------------------------------------------------------------------------------
Test set: com.epam.newsmanagement.dao.RoleDAOTest
-------------------------------------------------------------------------------
Tests run: 2, Failures: 0, Errors: 0, Skipped: 0, Time elapsed: 1.897 sec
